module gitlab.com/znixian/BuildTrack

go 1.18

require (
	github.com/blakesmith/ar v0.0.0-20190502131153-809d4375e1fb
	github.com/go-git/go-git/v5 v5.5.2
)

require (
	github.com/Microsoft/go-winio v0.5.2 // indirect
	github.com/ProtonMail/go-crypto v0.0.0-20221026131551-cf6655e29de4 // indirect
	github.com/acomagu/bufpipe v1.0.3 // indirect
	github.com/cloudflare/circl v1.1.0 // indirect
	github.com/emirpasic/gods v1.18.1 // indirect
	github.com/go-git/gcfg v1.5.0 // indirect
	github.com/go-git/go-billy/v5 v5.4.0 // indirect
	github.com/imdario/mergo v0.3.13 // indirect
	github.com/jbenet/go-context v0.0.0-20150711004518-d14ea06fba99 // indirect
	github.com/kevinburke/ssh_config v1.2.0 // indirect
	github.com/pjbgf/sha1cd v0.2.3 // indirect
	github.com/sergi/go-diff v1.1.0 // indirect
	github.com/skeema/knownhosts v1.1.0 // indirect
	github.com/xanzy/ssh-agent v0.3.3 // indirect
	golang.org/x/crypto v0.3.0 // indirect
	golang.org/x/net v0.2.0 // indirect
	golang.org/x/sys v0.3.0 // indirect
	gopkg.in/warnings.v0 v0.1.2 // indirect
)
